﻿Тип счета;Номер счета;Валюта;Дата операции;Референс проводки;Описание операции;Приход;Расход
Текущий зарплатный счёт;40817810209620014264;р.;26.03.2019;HOLD;25930607 RU GRAND MEDICA>NOVOKUZNET 19.03.26 19.03.26 1500.00 RUR 415481++++++9054 ;0;1500;
Текущий зарплатный счёт;40817810209620014264;р.;26.03.2019;B012603190018764;Внутрибанковский перевод между счетами, ДЕГТЯРЕНКО О. В. ;0;300;
Текущий зарплатный счёт;40817810209620014264;р.;25.03.2019;C012503190000342;За дни рождения От МИНАЕВ АНДРЕЙ АНДРЕЕВИЧ 40817810409620055405 044525593 30101810200000000593;1040;0;
Текущий зарплатный счёт;40817810209620014264;р.;24.03.2019;HOLD;RZ330911 RU GAZPROMNEFT AZS 091>NOV 19.03.24 19.03.24 1468.00 RUR 415481++++++9054 ;0;1398,8;
Текущий зарплатный счёт;40817810209620014264;р.;24.03.2019;CRD_8U36T8;415481++++++9054 20949470\643\NOVOKUZNECZK\EKKO PLANETA 23.03.19 21.03.19 6399.00 RUR MCC5661 ;0;6399;
Текущий зарплатный счёт;40817810209620014264;р.;24.03.2019;CRD_96M64W;415481++++++9054 10000001/RU/TINKOFF BANK CARD2CARD>Visa Direct 24.03.19 24.03.19 360.00 RUR MCC6012 ;360;0;
Текущий зарплатный счёт;40817810209620014264;р.;23.03.2019;CRD_4WZ7N8;415481++++++9054 10072009\643\Novokuznetsk\AUCHAN 072No 22.03.19 21.03.19 1334.20 RUR MCC5411 ;0;1334,2;
Текущий зарплатный счёт;40817810209620014264;р.;23.03.2019;OP1OD193N0000EJE;479087++++++2908 809131 /RU/CARD2CARD CLKNEW>MOSKVA 23.03.19 23.03.19 360.00 RUR MCC6012 От Якунин Владимир Владимирович 40817810407450006176 044525593 30101810200000000593;360;0;
Текущий зарплатный счёт;40817810209620014264;р.;23.03.2019;B012303190051112;Внутрибанковский перевод между счетами, ДЕГТЯРЕНКО О. В. ;1080;0;
Текущий зарплатный счёт;40817810209620014264;р.;23.03.2019;CRD_4AW66Z;415481++++++9054 25930607\643\NOVOKUZNETSK\GRAND MEDICA 21.03.19 19.03.19 2000.00 RUR MCC8099 ;0;2000;
Текущий зарплатный счёт;40817810209620014264;р.;23.03.2019;CRD_85X56R;415481++++++9054 10000001/RU/TINKOFF BANK CARD2CARD>Visa Direct 23.03.19 23.03.19 360.00 RUR MCC6012 ;360;0;
Текущий зарплатный счёт;40817810209620014264;р.;22.03.2019;B012203190023630;Внутрибанковский перевод между счетами, ДЕГТЯРЕНКО О. В. ;0;4500;
Текущий зарплатный счёт;40817810209620014264;р.;22.03.2019;B012203190023222;Внутрибанковский перевод между счетами, ДЕГТЯРЕНКО О. В. ;3600;0;
Текущий зарплатный счёт;40817810209620014264;р.;07.03.2019;CRD_3834SS;415481++++++9054 10000001/RU/TINKOFF BANK CARD2CARD>Visa Direct 07.03.19 07.03.19 360.00 RUR MCC6012 ;360;0;
Текущий зарплатный счёт;40817810209620014264;р.;07.03.2019;CRD_2WH0WR;415481++++++9054 10000001/RU/TINKOFF BANK CARD2CARD>Visa Direct 07.03.19 07.03.19 1040.00 RUR MCC6012 ;1040;0;
Текущий зарплатный счёт;40817810209620014264;р.;05.03.2019;CRD_4VY846;415481++++++9054 501996\643\NOVOKUZNETSK\Alfa Iss 05.03.19 04.03.19 20000.00 RUR MCC6011 ;0;20000;
Текущий зарплатный счёт;40817810209620014264;р.;05.03.2019;OP1ED1935000SNUO;Перевод с карты *3832. НДС не облагается. От АО "ТИНЬКОФФ БАНК" / МАКАРОВ АЛЕКСЕЙ СЕРГЕЕВИЧ 30232810700000000022 044525974 30101810145250000974;360;0;
Текущий зарплатный счёт;40817810209620014264;р.;05.03.2019;C010503190002432;Андрею на подарок От Якунин Владимир Владимирович 40817810407450006176 044525593 30101810200000000593;360;0;
Текущий зарплатный счёт;40817810209620014264;р.;04.03.2019;OP1ED1934000QADV;Перечисление заработной платы за ноябрь 2018г., НДС не облагается От АО "АЛЬФА-БАНК" НОВОСИБИРСКИЙ ФИЛИА Л 30302810800000001119 044525593 30101810200000000593;11277;0;
Текущий зарплатный счёт;40817810209620014264;р.;02.03.2019;B010203190085418;Внутрибанковский перевод между счетами, ДЕГТЯРЕНКО О. В. ;0;60000;
Текущий зарплатный счёт;40817810209620014264;р.;02.03.2019;B010203190085333;Внутрибанковский перевод между счетами, ДЕГТЯРЕНКО О. В. ;0;20000;
Текущий зарплатный счёт;40817810209620014264;р.;02.03.2019;B090203190001699;Погашение кредита внутрибанковским переводом между своими счетами ;0;1300;
Текущий зарплатный счёт;40817810209620014264;р.;02.03.2019;OP1ED1932000308Z;Пополнение счета,. НДС не облагается От АО "АЛЬФА-БАНК" НОВОСИБИРСКИЙ ФИЛИА Л 30302810800000001119 044525593 30101810200000000593;98000;0;
Текущий зарплатный счёт;40817810209620014264;р.;28.02.2019;CRD_5M57R6;415481++++++9054 501996\643\NOVOKUZNETSK\Alfa Iss 28.02.19 27.02.19 5000.00 RUR MCC6011 ;0;5000;
Текущий зарплатный счёт;40817810209620014264;р.;26.02.2019;OP1OD192Q00028A9;479087++++++2908 809131 /RU/CARD2CARD CLKNEW>MOSKVA 26.02.19 26.02.19 320.00 RUR MCC6012 От Якунин Владимир Владимирович 40817810407450006176 044525593 30101810200000000593;320;0;
Текущий зарплатный счёт;40817810209620014264;р.;26.02.2019;C012602190002998;по случаю рождения сына у Володи От Белышкин Сергей Васильевич 40817810907450006430 044525593 30101810200000000593;320;0;
Текущий зарплатный счёт;40817810209620014264;р.;26.02.2019;OP1ED192Q000TKPL;Перевод с карты *3832. НДС не облагается. От АО "ТИНЬКОФФ БАНК" / МАКАРОВ АЛЕКСЕЙ СЕРГЕЕВИЧ 30232810700000000022 044525974 30101810145250000974;320;0;
Текущий зарплатный счёт;40817810209620014264;р.;24.02.2019;CRD_1E2209;415481++++++9054 220570\643\NOVOKUZNETSK\Alfa Iss 23.02.19 22.02.19 3000.00 RUR MCC6011 ;0;3000;
Текущий зарплатный счёт;40817810209620014264;р.;21.02.2019;CRD_8SA42T;415481++++++9054 501996\643\NOVOKUZNETSK\Alfa Iss 20.02.19 19.02.19 26000.00 RUR MCC6011 ;0;26000;
Текущий зарплатный счёт;40817810209620014264;р.;18.02.2019;C011802190004537;Пополнение счета ;0;10000;
Текущий зарплатный счёт;40817810209620014264;р.;18.02.2019;OP1ED192I001B9NK;Пополнение счета,. НДС не облагается От АО "АЛЬФА-БАНК" НОВОСИБИРСКИЙ ФИЛИА Л 30302810800000001119 044525593 30101810200000000593;40000;0;
Текущий зарплатный счёт;40817810209620014264;р.;11.02.2019;B011102190073124;Внутрибанковский перевод между счетами, ДЕГТЯРЕНКО О. В. ;720;0;
Текущий зарплатный счёт;40817810209620014264;р.;10.02.2019;CRD_9UT512;415481++++++9054 00318799\643\NVKUZN\ATM 99 BINBAN 10.02.19 09.02.19 4000.00 RUR MCC6011 ;0;4000;
Текущий зарплатный счёт;40817810209620014264;р.;10.02.2019;CRD_9ZX5RR;415481++++++9054 11118002\643\NOVOKUZNETSK\KAFE 09.02.19 07.02.19 204.00 RUR MCC5812 ;0;204;
Текущий зарплатный счёт;40817810209620014264;р.;07.02.2019;OP1ED1927000WNT3;Перевод с карты *3832. НДС не облагается. От АО "ТИНЬКОФФ БАНК" / МАКАРОВ АЛЕКСЕЙ СЕРГЕЕВИЧ 30232810700000000022 044525974 30101810145250000974;920;0;
Текущий зарплатный счёт;40817810209620014264;р.;07.02.2019;C010702190002823;поплонение счёта От ХАУСТОВ ДМИТРИЙ ГЕННАДЬЕВИЧ 40817810609620014291 044525593 30101810200000000593;360;0;
Текущий зарплатный счёт;40817810209620014264;р.;07.02.2019;CRD_7974BT;415481++++++9054 10000001/RU/TINKOFF BANK CARD2CARD>Visa Direct 07.02.19 07.02.19 360.00 RUR MCC6012 ;360;0;
Текущий зарплатный счёт;40817810209620014264;р.;07.02.2019;B010702190012064;Внутрибанковский перевод между счетами, ДЕГТЯРЕНКО О. В. ;0;149805,92;
Текущий зарплатный счёт;40817810209620014264;р.;07.02.2019;B020702190001677;Внутрибанковский перевод между счетами с конвертацией, ДЕГТЯРЕНКО О. В. ;143660;0;
Текущий зарплатный счёт;40817810209620014264;р.;06.02.2019;C010602190002972;на подарок Владимиру От Белышкин Сергей Васильевич 40817810907450006430 044525593 30101810200000000593;360;0;
Текущий зарплатный счёт;40817810209620014264;р.;05.02.2019;B010502190028803;Внутрибанковский перевод между счетами, ДЕГТЯРЕНКО О. В. ;0;600;
Текущий зарплатный счёт;40817810209620014264;р.;04.02.2019;CRD_3VW3H2;415481++++++9054 25930610\643\NOVOKUZNETSK\GRAND MEDICA 04.02.19 02.02.19 900.00 RUR MCC8099 ;0;900;
Текущий зарплатный счёт;40817810209620014264;р.;04.02.2019;B010402190015568;Внутрибанковский перевод между счетами, ДЕГТЯРЕНКО О. В. ;0;500;
Текущий зарплатный счёт;40817810209620014264;р.;03.02.2019;CRD_9UK0BY;415481++++++9054 501996\643\NOVOKUZNETSK\Alfa Iss 02.02.19 01.02.19 80000.00 RUR MCC6011 ;0;80000;
Текущий зарплатный счёт;40817810209620014264;р.;03.02.2019;CRD_8991BY;415481++++++9054 501996\643\NOVOKUZNETSK\Alfa Iss 02.02.19 01.02.19 80000.00 RUR MCC6011 ;0;80000;
Текущий зарплатный счёт;40817810209620014264;р.;03.02.2019;CRD_89Z1BY;415481++++++9054 501996\643\NOVOKUZNETSK\Alfa Iss 02.02.19 01.02.19 60000.00 RUR MCC6011 ;0;60000;
Текущий зарплатный счёт;40817810209620014264;р.;03.02.2019;CRD_2XZ9AY;415481++++++9054 501996\643\NOVOKUZNETSK\Alfa Iss 02.02.19 01.02.19 80000.00 RUR MCC6011 ;0;80000;
Текущий зарплатный счёт;40817810209620014264;р.;02.02.2019;A010202190024776;Платеж A010202190024776 в пользу Билайн, +7903+++0711,02.02.2019,08-54-19. ;0;500;
Текущий зарплатный счёт;40817810209620014264;р.;01.02.2019;CRD_5XZ2BW;415481++++++9054 220912\643\NOVOKUZNETSK\Alfa Iss 01.02.19 31.01.19 200000.00 RUR MCC6011 ;0;200000;
Текущий зарплатный счёт;40817810209620014264;р.;01.02.2019;CRD_3E44BW;415481++++++9054 220912\643\NOVOKUZNETSK\Alfa Iss 01.02.19 31.01.19 5000.00 RUR MCC6011 ;0;5000;
Текущий зарплатный счёт;40817810209620014264;р.;01.02.2019;OP1ED19210002J5X;Пополнение счета,. НДС не облагается От АО "АЛЬФА-БАНК" НОВОСИБИРСКИЙ ФИЛИА Л 30302810800000001119 044525593 30101810200000000593;300000;0;
Текущий зарплатный счёт;40817810209620014264;р.;31.01.2019;OP1ED191V0019LAI;Пополнение счета, НДС не облагается От АО "АЛЬФА-БАНК" НОВОСИБИРСКИЙ ФИЛИА Л 30302810800000001119 044525593 30101810200000000593;200000;0;
Текущий зарплатный счёт;40817810209620014264;р.;31.01.2019;B093101190002465;Погашение кредита внутрибанковским переводом между своими счетами ;0;30300;
Текущий зарплатный счёт;40817810209620014264;р.;31.01.2019;OP1ED191V0014UVV;Перечисление заработной платы за сентябрь-октябрь 2018г., НДС не облагается От АО "АЛЬФА-БАНК" НОВОСИБИРСКИЙ ФИЛИА Л 30302810800000001119 044525593 30101810200000000593;22554;0;
Текущий зарплатный счёт;40817810209620014264;р.;31.01.2019;CRD_5C216N;415481++++++9054 501996\643\NOVOKUZNETSK\Alfa Iss 31.01.19 30.01.19 5000.00 RUR MCC6011 ;0;5000;
Текущий зарплатный счёт;40817810209620014264;р.;23.01.2019;CRD_4KK67K;415481++++++9054 501996\643\NOVOKUZNETSK\Alfa Iss 23.01.19 22.01.19 10000.00 RUR MCC6011 ;0;10000;
Текущий зарплатный счёт;40817810209620014264;р.;23.01.2019;CRD_2MW57K;415481++++++9054 501996\643\NOVOKUZNETSK\Alfa Iss 23.01.19 22.01.19 80000.00 RUR MCC6011 ;0;80000;
Текущий зарплатный счёт;40817810209620014264;р.;22.01.2019;OP1ED191M0003M90;Пополнение счета, НДС не облагается От АО "АЛЬФА-БАНК" НОВОСИБИРСКИЙ ФИЛИА Л 30302810800000001119 044525593 30101810200000000593;100000;0;
Текущий зарплатный счёт;40817810209620014264;р.;20.01.2019;CRD_3E7393;415481++++++9054 220558\643\NOVOKUZNETSK\Alfa Iss 19.01.19 18.01.19 280000.00 RUR MCC6011 ;0;280000;
Текущий зарплатный счёт;40817810209620014264;р.;18.01.2019;CRD_8440C3;415481++++++9054 10000001/RU/TINKOFF BANK CARD2CARD>Visa Direct 18.01.19 18.01.19 560.00 RUR MCC6012 ;560;0;
Текущий зарплатный счёт;40817810209620014264;р.;18.01.2019;OP1ED191I000MF3G;Пополнение счета, НДС не облагается От АО "АЛЬФА-БАНК" НОВОСИБИРСКИЙ ФИЛИА Л 30302810800000001119 044525593 30101810200000000593;300000;0;
Текущий зарплатный счёт;40817810209620014264;р.;15.01.2019;C011501190000228;За дни рождения От МИНАЕВ АНДРЕЙ АНДРЕЕВИЧ 40817810409620055405 044525593 30101810200000000593;920;0;
Текущий зарплатный счёт;40817810209620014264;р.;11.01.2019;B011101190005054;Внутрибанковский перевод между счетами, ДЕГТЯРЕНКО О. В. ;0;31464;
Текущий зарплатный счёт;40817810209620014264;р.;10.01.2019;CRD_4AH95W;415481++++++9054 220558\643\NOVOKUZNETSK\Alfa Iss 10.01.19 09.01.19 600.00 RUR MCC6011 ;0;600;
Текущий зарплатный счёт;40817810209620014264;р.;09.01.2019;CASHIN220910;Внесение средств через устройство Recycling 220910 на счет 40817810209620014264 ДЕГТЯРЕНКО ОЛЕСЯ ВЛАДИМИРОВНА ;30000;0;
Текущий зарплатный счёт;40817810209620014264;р.;08.01.2019;B090801190002680;Погашение кредита внутрибанковским переводом между своими счетами ;0;130735,57;
Текущий зарплатный счёт;40817810209620014264;р.;08.01.2019;B020801190014216;Внутрибанковский перевод между счетами с конвертацией, ДЕГТЯРЕНКО О. В. ;132800;0;
Текущий зарплатный счёт;40817810209620014264;р.;08.01.2019;B010801190090700;Внутрибанковский перевод между счетами, ДЕГТЯРЕНКО О. В. ;0;59922;
Текущий зарплатный счёт;40817810209620014264;р.;08.01.2019;CRD_71N9RN;415481++++++9054 220558\643\NOVOKUZNETSK\Alfa Iss 08.01.19 07.01.19 10000.00 RUR MCC6011 ;0;10000;
